
# lxc clone


the_name="kemen"
the_ip="195.201.254.184"


lxc copy xfce $the_name
ifn=$(ip link show | head -3 | tail -1 | awk {'print $2'} | cut -d: -f1)
lxc config device add $the_name eth0 nic nictype=routed parent=$ifn ipv4.address=$the_ip
lxc start $the_name


